%YAML 1.1
%TAG !u! tag:unity3d.com,2011:
--- !u!114 &11400000
MonoBehaviour:
  m_ObjectHideFlags: 0
  m_CorrespondingSourceObject: {fileID: 0}
  m_PrefabInstance: {fileID: 0}
  m_PrefabAsset: {fileID: 0}
  m_GameObject: {fileID: 0}
  m_Enabled: 1
  m_EditorHideFlags: 0
  m_Script: {fileID: 11500000, guid: ff77ecbd5ec04410ba2c4e71ae90fbf7, type: 3}
  m_Name: Level_2_Settings
  m_EditorClassIdentifier: 
  _wallColor: {r: 0, g: 0, b: 0, a: 1}
  _boxColor: {r: 1, g: 1, b: 0, a: 1}
  _playerColor: {r: 1, g: 0, b: 0, a: 1}
  _endPointColor: {r: 0, g: 1, b: 0, a: 1}
  _levelPlanTexture: {fileID: 2800000, guid: e87d5725b88d92b46b83bc4c5b8435cf, type: 3}
  _cellSize: {x: 1, y: 1}
